<?xml version="1.0" encoding="utf-8"?>
<!-- Generator: Adobe Illustrator 18.1.0, SVG Export Plug-In . SVG Version: 6.00 Build 0)  -->
<svg version="1.1" xmlns="http://www.w3.org/2000/svg" xmlns:xlink="http://www.w3.org/1999/xlink" x="0px" y="0px"
	 viewBox="0 0 51.426 51.426" enable-background="new 0 0 51.426 51.426" xml:space="preserve">
<g id="Layer_1">
</g>
<g id="Isolation_Mode">
	<g>
		<g>
			<g>
				<rect x="16.645" y="38.16" fill="#C2B59B" width="18.114" height="2.369"/>
			</g>
			<g>
				<path fill="#C2B59B" d="M15.211,30.155c-0.132,0.348-0.27,0.694-0.395,1.045c-0.294,0.831-0.57,1.669-0.884,2.492
					c-0.057,0.149-0.235,0.278-0.394,0.285c-0.677,0.03-1.358,0.03-2.035,0.001c-0.159-0.007-0.338-0.136-0.396-0.284
					c-0.494-1.256-0.962-2.522-1.437-3.785c-0.671-1.785-1.346-3.569-2.011-5.356c-0.685-1.842-1.359-3.687-2.041-5.53
					c-0.178-0.481-0.367-0.958-0.574-1.498c0.185-0.027,0.335-0.066,0.485-0.068c0.618-0.007,1.237,0.012,1.855-0.009
					c0.344-0.011,0.487,0.144,0.597,0.451c0.602,1.685,1.231,3.36,1.838,5.043c0.817,2.263,1.622,4.53,2.436,6.794
					c0.058,0.162,0.144,0.314,0.279,0.603c0.202-0.551,0.365-0.978,0.515-1.41c0.27-0.775,0.595-1.539,0.773-2.336
					c0.088-0.391-0.041-0.864-0.175-1.266c-0.597-1.795-1.232-3.578-1.853-5.365c-0.277-0.799-0.554-1.598-0.869-2.509
					c0.51,0,0.943-0.007,1.375,0.002c0.41,0.008,0.918-0.108,1.201,0.09c0.274,0.192,0.327,0.711,0.46,1.093
					c0.355,1.025,0.697,2.054,1.05,3.079c0.061,0.176,0.149,0.343,0.28,0.639c0.201-0.561,0.367-1.003,0.519-1.45
					c0.358-1.053,0.705-2.11,1.068-3.161c0.037-0.107,0.156-0.261,0.24-0.263c0.804-0.02,1.608-0.012,2.48-0.012
					c-0.248,0.732-0.472,1.392-0.697,2.051c-0.464,1.36-0.928,2.72-1.394,4.08c-0.228,0.665-0.401,1.359-0.709,1.985
					c-0.316,0.642-0.043,1.177,0.135,1.738c0.261,0.825,0.557,1.639,0.845,2.455c0.052,0.148,0.137,0.284,0.265,0.541
					c0.26-0.671,0.487-1.23,0.693-1.797c0.47-1.295,0.929-2.595,1.394-3.892c0.767-2.141,1.536-4.281,2.3-6.422
					c0.269-0.754,0.264-0.756,1.083-0.756c0.642,0,1.283,0,2.011,0c-0.319,0.869-0.597,1.635-0.882,2.399
					c-0.744,1.993-1.488,3.985-2.237,5.976c-0.486,1.291-0.984,2.577-1.468,3.868c-0.494,1.319-0.985,2.638-1.457,3.965
					c-0.115,0.322-0.297,0.367-0.695,0.316l-1.631,0.013c-0.341,0.038-0.479-0.067-0.573-0.338c-0.383-1.11-0.781-2.214-1.175-3.32
					c-0.019-0.053-0.049-0.102-0.075-0.152C15.293,30.172,15.252,30.164,15.211,30.155z"/>
			</g>
			<g>
				<path fill="#C2B59B" d="M30.649,23.389c-0.18-0.217-0.32-0.4-0.474-0.57C29.617,22.2,28.844,22,28.142,22.287
					c-0.662,0.271-0.996,0.884-0.892,1.637c0.086,0.62,0.686,1.182,1.338,1.232c0.291,0.022,0.585,0.004,0.934,0.004
					c0,0.684,0.008,1.319-0.013,1.953c-0.002,0.062-0.182,0.154-0.288,0.169c-0.41,0.06-0.84,0.039-1.234,0.149
					c-1.232,0.344-1.892,1.642-1.574,2.838c0.405,1.522,1.899,2.012,2.963,1.678c1.453-0.456,1.934-2.224,1.289-3.416
					c-0.189-0.349-0.286-0.672-0.23-1.081c0.036-0.267,0.019-0.537-0.011-0.804c-0.038-0.343,0.094-0.421,0.383-0.42
					c1.967,0.007,3.933,0.009,5.9-0.001c0.346-0.002,0.438,0.134,0.385,0.535c-0.041,0.311-0.031,0.626,0.006,0.937
					c0.044,0.375-0.075,0.478-0.396,0.482c-1.093,0.015-2.186,0.063-3.279,0.076c-0.363,0.004-0.415,0.154-0.327,0.459
					c0.505,1.746-0.311,3.697-1.76,4.645c-2.566,1.678-5.946,0.748-7.046-2.236c-0.606-1.643-0.155-3.351,1.225-4.575
					c0.102-0.09,0.207-0.178,0.32-0.252c0.271-0.177,0.263-0.338,0.012-0.576c-0.587-0.556-0.886-1.255-0.914-2.065
					c-0.051-1.497,0.985-2.926,2.46-3.395c1.678-0.533,3.196-0.089,4.291,1.261c0.1,0.123,0.208,0.253,0.258,0.399
					c0.036,0.105,0.027,0.29-0.041,0.355C31.511,22.647,31.099,22.994,30.649,23.389z"/>
			</g>
			<g>
				<path fill="#C2B59B" d="M34.332,17.451c0.916,0,1.751-0.008,2.586,0.011c0.092,0.002,0.217,0.139,0.265,0.242
					c0.69,1.474,1.369,2.954,2.053,4.432c0.294,0.634,0.594,1.265,0.955,2.032c0.341-0.727,0.627-1.326,0.905-1.928
					c0.683-1.478,1.368-2.956,2.04-4.439c0.122-0.269,0.277-0.379,0.59-0.362c0.614,0.034,1.229,0.025,1.845,0.008
					c0.138-0.004,0.27,0.022,0.473,0.042c-0.097,0.248-0.162,0.452-0.254,0.643c-1.238,2.562-2.476,5.124-3.723,7.682
					c-0.325,0.667-0.533,1.334-0.513,2.103c0.048,1.854,0.007,3.71,0.023,5.565c0.004,0.415-0.106,0.561-0.629,0.496l-1.567,0.004
					c-0.463,0.048-0.576-0.09-0.573-0.477c0.014-1.988,0.025-3.976-0.008-5.963c-0.007-0.436-0.126-0.901-0.312-1.297
					c-1.324-2.814-2.68-5.614-4.024-8.419C34.421,17.738,34.398,17.64,34.332,17.451z"/>
			</g>
			<g>
				<path fill="#C2B59B" d="M25.713,51.426C11.535,51.426,0,39.891,0,25.713C0,11.535,11.535,0,25.713,0
					c14.178,0,25.713,11.535,25.713,25.713C51.426,39.891,39.891,51.426,25.713,51.426z M25.713,2.369
					c-12.872,0-23.344,10.472-23.344,23.344s10.472,23.344,23.344,23.344s23.344-10.472,23.344-23.344S38.585,2.369,25.713,2.369z"
					/>
			</g>
		</g>
	</g>
</g>
</svg>
